<svg id="username" xmlns="http://www.w3.org/2000/svg" width="20" height="20" viewBox="0 0 20 20">
  <rect id="Rectangle_2686" data-name="Rectangle 2686" width="20" height="20" fill="none"/>
  <g id="username-2" data-name="username" transform="translate(2 1.25)">
    <path id="Path_5372" data-name="Path 5372" d="M22.2,28.394V26.429a3.991,3.991,0,0,0-4.05-3.931h-8.1A3.991,3.991,0,0,0,6,26.429v1.965" transform="translate(-6 -10.707)" fill="none" stroke="#00bbf9" stroke-linecap="round" stroke-linejoin="round" stroke-width="0.95"/>
    <path id="Path_5373" data-name="Path 5373" d="M19.861,8.431A3.931,3.931,0,1,1,15.93,4.5a3.931,3.931,0,0,1,3.931,3.931Z" transform="translate(-7.832 -4.5)" fill="none" stroke="#00bbf9" stroke-linecap="round" stroke-linejoin="round" stroke-width="0.95"/>
  </g>
</svg>
